1    VT2016042120160421F000000001  411MENDE   FACTURE : MENDEZ CARLOS  0000000250.00D                  MENDEZ CARLOS                          
1    VT2016042120160421F000000001  70830000   FACTURE : MENDEZ CARLOS  0000000208.33C                                                         
1    VT2016042120160421F000000001  44571802   FACTURE : MENDEZ CARLOS  0000000041.67C                                                         
2    VT2016042620160426F000000002  411DAS     FACTURE : DAS MATTHIJS   0000001030.00D                  DAS MATTHIJS                           
2    VT2016042620160426F000000002  70830000   FACTURE : DAS MATTHIJS   0000000858.34C                                                         
2    VT2016042620160426F000000002  44571802   FACTURE : DAS MATTHIJS   0000000171.66C                                                         
3    VT2016060120160601F000000006  411TENNO   FACTURE : TENNOE JANNE   0000000165.00D                  TENNOE JANNE                           
3    VT2016060120160601F000000006  70830000   FACTURE : TENNOE JANNE   00000000137.5C                                                         
3    VT2016060120160601F000000006  44571802   FACTURE : TENNOE JANNE   00000000027.5C                                                         
4    VT2016060320160603F000000007  411HURTE   FACTURE : HURTER JEAN MIC0000000050.00D                  HURTER JEAN MICHEL                     
4    VT2016060320160603F000000007  70830000   FACTURE : HURTER JEAN MIC0000000041.67C                                                         
4    VT2016060320160603F000000007  44571802   FACTURE : HURTER JEAN MIC0000000008.33C                                                         
5    VT2016061220160612F000000010  411DEAKI   FACTURE : DEAKIN IAN     0000000635.00D                  DEAKIN IAN                             
5    VT2016061220160612F000000010  70830000   FACTURE : DEAKIN IAN     0000000529.17C                                                         
5    VT2016061220160612F000000010  44571802   FACTURE : DEAKIN IAN     0000000105.83C                                                         
6    VT2016061420160614F000000011  411LEBOU   FACTURE : LEBOURG SEBASTI0000000035.00D                  LEBOURG SEBASTIEN                      
6    VT2016061420160614F000000011  70830000   FACTURE : LEBOURG SEBASTI0000000029.17C                                                         
6    VT2016061420160614F000000011  44571802   FACTURE : LEBOURG SEBASTI0000000005.83C                                                         
7    VT2016061620160616F000000016  411WICKS   FACTURE : WICKS ALEX     0000000790.00D                  WICKS ALEX                             
7    VT2016061620160616F000000016  70830000   FACTURE : WICKS ALEX     0000000658.33C                                                         
7    VT2016061620160616F000000016  44571802   FACTURE : WICKS ALEX     0000000131.67C                                                         
8    VT2016061720160617F000000017  411MARIE   FACTURE : MARIE BENJAMIN 00000000600.5D                  MARIE BENJAMIN                         
8    VT2016061720160617F000000017  70830000   FACTURE : MARIE BENJAMIN 0000000500.42C                                                         
8    VT2016061720160617F000000017  44571802   FACTURE : MARIE BENJAMIN 0000000100.08C                                                         
9    VT2016063020160630F000000018  411LEBOU   FACTURE : LEBOURG SEBASTI0000000012.00D                  LEBOURG SEBASTIEN                      
9    VT2016063020160630F000000018  70830000   FACTURE : LEBOURG SEBASTI0000000010.00C                                                         
9    VT2016063020160630F000000018  44571802   FACTURE : LEBOURG SEBASTI0000000002.00C                                                         
10   VT2016063020160630F000000019  411LEBOU   FACTURE : LEBOURG SEBASTI0000000017.00D                  LEBOURG SEBASTIEN                      
10   VT2016063020160630F000000019  70830000   FACTURE : LEBOURG SEBASTI0000000014.17C                                                         
10   VT2016063020160630F000000019  44571802   FACTURE : LEBOURG SEBASTI0000000002.83C                                                         
11   VT2016071920160719F000000023  411HENRY   FACTURE : HENRY PHILIPPE 0000000205.00D                  HENRY PHILIPPE                         
11   VT2016071920160719F000000023  70830000   FACTURE : HENRY PHILIPPE 0000000170.83C                                                         
11   VT2016071920160719F000000023  44571802   FACTURE : HENRY PHILIPPE 0000000034.17C                                                         
12   VT2016072520160725F000000024  411LINDE   FACTURE : LINDER MIRIAM  0000000430.00D                  LINDER MIRIAM                          
12   VT2016072520160725F000000024  70830000   FACTURE : LINDER MIRIAM  0000000358.33C                                                         
12   VT2016072520160725F000000024  44571802   FACTURE : LINDER MIRIAM  0000000071.67C                                                         
13   VT2016080320160803F000000027  411MC AR   FACTURE : MC ARTHUR JAMES0000000145.00D                  MC ARTHUR JAMES                        
13   VT2016080320160803F000000027  70830000   FACTURE : MC ARTHUR JAMES0000000120.83C                                                         
13   VT2016080320160803F000000027  44571802   FACTURE : MC ARTHUR JAMES0000000024.17C                                                         
14   VT2016080620160806F000000029  411OGER    FACTURE : OGER MARIE     0000000130.00D                  OGER MARIE                             
14   VT2016080620160806F000000029  70830000   FACTURE : OGER MARIE     0000000108.33C                                                         
14   VT2016080620160806F000000029  44571802   FACTURE : OGER MARIE     0000000021.67C                                                         
15   VT2016081020160810F000000030  411JALMA   FACTURE : JALMAIN ISABELL0000000302.00D                  JALMAIN ISABELLE                       
15   VT2016081020160810F000000030  70830000   FACTURE : JALMAIN ISABELL0000000251.67C                                                         
15   VT2016081020160810F000000030  44571802   FACTURE : JALMAIN ISABELL0000000050.33C                                                         
16   VT2016081020160810F000000032  411GIBSO   FACTURE : GIBSON SCOTT   0000000270.00D                  GIBSON SCOTT                           
16   VT2016081020160810F000000032  70830000   FACTURE : GIBSON SCOTT   0000000225.00C                                                         
16   VT2016081020160810F000000032  44571802   FACTURE : GIBSON SCOTT   0000000045.00C                                                         
17   VT2016100520161005F000000036  411BOONE   FACTURE : BOONE FABRICE  0000000020.00D                  BOONE FABRICE                          
17   VT2016100520161005F000000036  70830000   FACTURE : BOONE FABRICE  0000000016.67C                                                         
17   VT2016100520161005F000000036  44571802   FACTURE : BOONE FABRICE  0000000003.33C                                                         
18   VT2016120720161207F000000039  411VINCE   FACTURE : VINCENT LAURENT0000000035.00D                  VINCENT LAURENT                        
18   VT2016120720161207F000000039  70830000   FACTURE : VINCENT LAURENT0000000029.17C                                                         
18   VT2016120720161207F000000039  44571802   FACTURE : VINCENT LAURENT0000000005.83C                                                         
